﻿{
  "webroot": "src",
  "version": "1.0.0-*",

  "dependencies": {
    "Microsoft.AspNet.Server.IIS": "1.0.0-beta4",
    "Microsoft.AspNet.Server.WebListener": "1.0.0-beta4",
    "Microsoft.AspNet.StaticFiles": "1.0.0-beta4",
    "Microsoft.AspNet.Diagnostics": "1.0.0-beta4"
  },

  "commands": {
      "web": "Microsoft.AspNet.Hosting --server Microsoft.AspNet.Server.WebListener --server.urls http://localhost:5000"
  },

  "frameworks": {
    "dnx451": { },
    "dnxcore50": { }
  },

  "publishExclude": [
    "node_modules",
    "src/bower_components",
    "**.xproj",
    "**.user",
    "**.vspscc"
  ],
  "exclude": [
    "wwwroot",
    "node_modules",
    "src/bower_components"
  ]
}
